[gd_scene load_steps=12 format=2]

[ext_resource path="res://BossBattle.gd" type="Script" id=1]
[ext_resource path="res://Boss.tscn" type="PackedScene" id=2]
[ext_resource path="res://Player.tscn" type="PackedScene" id=3]
[ext_resource path="res://img/cena/solo.png" type="Texture" id=4]
[ext_resource path="res://img/cena/subsolo.png" type="Texture" id=5]
[ext_resource path="res://img/cena/ceu.png" type="Texture" id=6]
[ext_resource path="res://img/cena/muro.png" type="Texture" id=7]
[ext_resource path="res://img/cena/limite_2.png" type="Texture" id=8]

[sub_resource type="TileSet" id=1]
0/name = "solo.png 0"
0/texture = ExtResource( 4 )
0/tex_offset = Vector2( 0, 0 )
0/modulate = Color( 1, 1, 1, 1 )
0/region = Rect2( 0, 0, 64, 64 )
0/tile_mode = 0
0/occluder_offset = Vector2( 0, 0 )
0/navigation_offset = Vector2( 0, 0 )
0/shape_offset = Vector2( 0, 0 )
0/shape_transform = Transform2D( 1, 0, 0, 1, 0, 0 )
0/shape_one_way = false
0/shape_one_way_margin = 0.0
0/shapes = [  ]
0/z_index = 0
1/name = "subsolo.png 1"
1/texture = ExtResource( 5 )
1/tex_offset = Vector2( 0, 0 )
1/modulate = Color( 1, 1, 1, 1 )
1/region = Rect2( 0, 0, 64, 64 )
1/tile_mode = 0
1/occluder_offset = Vector2( 0, 0 )
1/navigation_offset = Vector2( 0, 0 )
1/shape_offset = Vector2( 0, 0 )
1/shape_transform = Transform2D( 1, 0, 0, 1, 0, 0 )
1/shape_one_way = false
1/shape_one_way_margin = 0.0
1/shapes = [  ]
1/z_index = 0

[sub_resource type="RectangleShape2D" id=2]
extents = Vector2( 23.1571, 547.809 )

[sub_resource type="RectangleShape2D" id=3]
extents = Vector2( 1239.82, 11.2667 )

[node name="BossBattle" type="Node2D"]
position = Vector2( -93.3382, -12.4362 )
script = ExtResource( 1 )
Boss = ExtResource( 2 )
Player = ExtResource( 3 )

[node name="TextureRect" type="TextureRect" parent="."]
margin_left = -640.0
margin_top = -354.0
margin_right = 1726.0
margin_bottom = 573.0
texture = ExtResource( 6 )
stretch_mode = 7
flip_v = true
__meta__ = {
"_edit_group_": true,
"_edit_use_anchors_": false
}

[node name="TileMap" type="TileMap" parent="."]
position = Vector2( -512, -354 )
tile_set = SubResource( 1 )
format = 1
tile_data = PoolIntArray( 983038, 0, 0, 983039, 0, 0, 917504, 0, 0, 917505, 0, 0, 917506, 0, 0, 917507, 0, 0, 917508, 0, 0, 917509, 0, 0, 917510, 0, 0, 917511, 0, 0, 917512, 0, 0, 917513, 0, 0, 917514, 0, 0, 917515, 0, 0, 917516, 0, 0, 917517, 0, 0, 917518, 0, 0, 917519, 0, 0, 917520, 0, 0, 917521, 0, 0, 917522, 0, 0, 917523, 0, 0, 917524, 0, 0, 917525, 0, 0, 917526, 0, 0, 917527, 0, 0, 917528, 0, 0, 917529, 0, 0, 917530, 0, 0, 917531, 0, 0, 917532, 0, 0, 917533, 0, 0, 917534, 0, 0, 917535, 0, 0, 917536, 0, 0, 917537, 0, 0, 917538, 0, 0, 1048574, 1, 0, 1048575, 1, 0, 983040, 1, 0, 983041, 1, 0, 983042, 1, 0, 983043, 1, 0, 983044, 1, 0, 983045, 1, 0, 983046, 1, 0, 983047, 1, 0, 983048, 1, 0, 983049, 1, 0, 983050, 1, 0, 983051, 1, 0, 983052, 1, 0, 983053, 1, 0, 983054, 1, 0, 983055, 1, 0, 983056, 1, 0, 983057, 1, 0, 983058, 1, 0, 983059, 1, 0, 983060, 1, 0, 983061, 1, 0, 983062, 1, 0, 983063, 1, 0, 983064, 1, 0, 983065, 1, 0, 983066, 1, 0, 983067, 1, 0, 983068, 1, 0, 983069, 1, 0, 983070, 1, 0, 983071, 1, 0, 983072, 1, 0, 983073, 1, 0, 983074, 1, 0, 1114110, 1, 0, 1114111, 1, 0, 1048576, 1, 0, 1048577, 1, 0, 1048578, 1, 0, 1048579, 1, 0, 1048580, 1, 0, 1048581, 1, 0, 1048582, 1, 0, 1048583, 1, 0, 1048584, 1, 0, 1048585, 1, 0, 1048586, 1, 0, 1048587, 1, 0, 1048588, 1, 0, 1048589, 1, 0, 1048590, 1, 0, 1048591, 1, 0, 1048592, 1, 0, 1048593, 1, 0, 1048594, 1, 0, 1048595, 1, 0, 1048596, 1, 0, 1048597, 1, 0, 1048598, 1, 0, 1048599, 1, 0, 1048600, 1, 0, 1048601, 1, 0, 1048602, 1, 0, 1048603, 1, 0, 1048604, 1, 0, 1048605, 1, 0, 1048606, 1, 0, 1048607, 1, 0, 1048608, 1, 0, 1048609, 1, 0, 1048610, 1, 0, 1179646, 1, 0, 1179647, 1, 0, 1114112, 1, 0, 1114113, 1, 0, 1114114, 1, 0, 1114115, 1, 0, 1114116, 1, 0, 1114117, 1, 0, 1114118, 1, 0, 1114119, 1, 0, 1114120, 1, 0, 1114121, 1, 0, 1114122, 1, 0, 1114123, 1, 0, 1114124, 1, 0, 1114125, 1, 0, 1114126, 1, 0, 1114127, 1, 0, 1114128, 1, 0, 1114129, 1, 0, 1114130, 1, 0, 1114131, 1, 0, 1114132, 1, 0, 1114133, 1, 0, 1114134, 1, 0, 1114135, 1, 0, 1114136, 1, 0, 1114137, 1, 0, 1114138, 1, 0, 1114139, 1, 0, 1114140, 1, 0, 1114141, 1, 0, 1114142, 1, 0, 1114143, 1, 0, 1114144, 1, 0, 1114145, 1, 0, 1114146, 1, 0 )

[node name="TextureRect2" type="TextureRect" parent="."]
margin_left = -512.0
margin_top = 310.0
margin_right = 1536.0
margin_bottom = 550.0
texture = ExtResource( 7 )
stretch_mode = 2
__meta__ = {
"_edit_use_anchors_": false
}

[node name="LeftLimit" type="StaticBody2D" parent="."]
position = Vector2( 200, 0 )
scale = Vector2( 1.3, 1 )

[node name="Sprite" type="Sprite" parent="LeftLimit"]
position = Vector2( -400, 400 )
scale = Vector2( 1.5, 1.3 )
texture = ExtResource( 8 )

[node name="CollisionShape2D" type="CollisionShape2D" parent="LeftLimit"]
position = Vector2( -300, 255 )
shape = SubResource( 2 )

[node name="RightLimit" type="StaticBody2D" parent="."]
position = Vector2( 1500, 0 )
scale = Vector2( 1.3, 1 )

[node name="Sprite" type="Sprite" parent="RightLimit"]
position = Vector2( -250, 400 )
scale = Vector2( 1.5, 1.3 )
texture = ExtResource( 8 )
flip_h = true

[node name="CollisionShape2D" type="CollisionShape2D" parent="RightLimit"]
position = Vector2( -360, 250 )
shape = SubResource( 2 )

[node name="UpperLimit" type="StaticBody2D" parent="."]

[node name="CollisionShape2D" type="CollisionShape2D" parent="UpperLimit"]
position = Vector2( 512, -10 )
shape = SubResource( 3 )
